[
{
    "fields": {
        "model": "logentry",
        "app_label": "admin"
    },
    "model": "contenttypes.contenttype",
    "pk": 1
},
{
    "fields": {
        "model": "permission",
        "app_label": "auth"
    },
    "model": "contenttypes.contenttype",
    "pk": 2
},
{
    "fields": {
        "model": "group",
        "app_label": "auth"
    },
    "model": "contenttypes.contenttype",
    "pk": 3
},
{
    "fields": {
        "model": "user",
        "app_label": "auth"
    },
    "model": "contenttypes.contenttype",
    "pk": 4
},
{
    "fields": {
        "model": "contenttype",
        "app_label": "contenttypes"
    },
    "model": "contenttypes.contenttype",
    "pk": 5
},
{
    "fields": {
        "model": "session",
        "app_label": "sessions"
    },
    "model": "contenttypes.contenttype",
    "pk": 6
},
{
    "fields": {
        "model": "zona",
        "app_label": "comun"
    },
    "model": "contenttypes.contenttype",
    "pk": 7
},
{
    "fields": {
        "model": "municipio",
        "app_label": "comun"
    },
    "model": "contenttypes.contenttype",
    "pk": 8
},
{
    "fields": {
        "model": "parroquia",
        "app_label": "comun"
    },
    "model": "contenttypes.contenttype",
    "pk": 9
},
{
    "fields": {
        "model": "procedimiento",
        "app_label": "comun"
    },
    "model": "contenttypes.contenttype",
    "pk": 10
},
{
    "fields": {
        "model": "detalleprocedimiento",
        "app_label": "comun"
    },
    "model": "contenttypes.contenttype",
    "pk": 11
},
{
    "fields": {
        "model": "comision",
        "app_label": "comun"
    },
    "model": "contenttypes.contenttype",
    "pk": 12
},
{
    "fields": {
        "model": "estacion",
        "app_label": "comun"
    },
    "model": "contenttypes.contenttype",
    "pk": 13
},
{
    "fields": {
        "model": "unidad",
        "app_label": "comun"
    },
    "model": "contenttypes.contenttype",
    "pk": 14
},
{
    "fields": {
        "model": "diagnostico",
        "app_label": "comun"
    },
    "model": "contenttypes.contenttype",
    "pk": 15
},
{
    "fields": {
        "model": "userprofile",
        "app_label": "usuario"
    },
    "model": "contenttypes.contenttype",
    "pk": 16
},
{
    "fields": {
        "model": "novedad",
        "app_label": "novedad"
    },
    "model": "contenttypes.contenttype",
    "pk": 17
},
{
    "fields": {
        "model": "vehiculo",
        "app_label": "novedad"
    },
    "model": "contenttypes.contenttype",
    "pk": 18
},
{
    "fields": {
        "model": "persona",
        "app_label": "novedad"
    },
    "model": "contenttypes.contenttype",
    "pk": 19
},
{
    "fields": {
        "model": "estructura",
        "app_label": "novedad"
    },
    "model": "contenttypes.contenttype",
    "pk": 20
},
{
    "fields": {
        "model": "novedadunidad",
        "app_label": "novedad"
    },
    "model": "contenttypes.contenttype",
    "pk": 21
},
{
    "fields": {
        "model": "novedadcomision",
        "app_label": "novedad"
    },
    "model": "contenttypes.contenttype",
    "pk": 22
},
{
    "fields": {
        "model": "novedadpersona",
        "app_label": "novedad"
    },
    "model": "contenttypes.contenttype",
    "pk": 23
},
{
    "fields": {
        "model": "novedadvehiculo",
        "app_label": "novedad"
    },
    "model": "contenttypes.contenttype",
    "pk": 24
},
{
    "fields": {
        "model": "personavehiculo",
        "app_label": "novedad"
    },
    "model": "contenttypes.contenttype",
    "pk": 25
},
{
    "fields": {
        "model": "personaestructura",
        "app_label": "novedad"
    },
    "model": "contenttypes.contenttype",
    "pk": 26
},
{
    "fields": {
        "model": "personadiagnostico",
        "app_label": "novedad"
    },
    "model": "contenttypes.contenttype",
    "pk": 27
},
{
    "fields": {
        "expire_date": "2015-07-03T17:22:29.989Z",
        "session_data": "ZGEyMDI5ZDA0OWU5NTdjZjkzMmY2NDVmMzYyM2MwOTgwYjg0YzcxNTp7Il9hdXRoX3VzZXJfaGFzaCI6ImYxYTJiZTVmZTI3ZGZkYmNhOWMzZGYzOGY4YzA3MDJkYWVmMTk0NjMiLCJfYXV0aF91c2VyX2JhY2tlbmQiOiJkamFuZ28uY29udHJpYi5hdXRoLmJhY2tlbmRzLk1vZGVsQmFja2VuZCIsIl9hdXRoX3VzZXJfaWQiOiIxIn0="
    },
    "model": "sessions.session",
    "pk": "0475b1vkjx8gawydvhzsh3yjx3klo1km"
},
{
    "fields": {
        "expire_date": "2015-09-24T16:31:52.547Z",
        "session_data": "ZGEyMDI5ZDA0OWU5NTdjZjkzMmY2NDVmMzYyM2MwOTgwYjg0YzcxNTp7Il9hdXRoX3VzZXJfaGFzaCI6ImYxYTJiZTVmZTI3ZGZkYmNhOWMzZGYzOGY4YzA3MDJkYWVmMTk0NjMiLCJfYXV0aF91c2VyX2JhY2tlbmQiOiJkamFuZ28uY29udHJpYi5hdXRoLmJhY2tlbmRzLk1vZGVsQmFja2VuZCIsIl9hdXRoX3VzZXJfaWQiOiIxIn0="
    },
    "model": "sessions.session",
    "pk": "1aqfmqtmogcwprpvz3jkea7xyknx5vbd"
},
{
    "fields": {
        "expire_date": "2015-07-03T17:13:14.071Z",
        "session_data": "ZGEyMDI5ZDA0OWU5NTdjZjkzMmY2NDVmMzYyM2MwOTgwYjg0YzcxNTp7Il9hdXRoX3VzZXJfaGFzaCI6ImYxYTJiZTVmZTI3ZGZkYmNhOWMzZGYzOGY4YzA3MDJkYWVmMTk0NjMiLCJfYXV0aF91c2VyX2JhY2tlbmQiOiJkamFuZ28uY29udHJpYi5hdXRoLmJhY2tlbmRzLk1vZGVsQmFja2VuZCIsIl9hdXRoX3VzZXJfaWQiOiIxIn0="
    },
    "model": "sessions.session",
    "pk": "3jax3jwk70hpda3qxoqt6rmsyii1wq78"
},
{
    "fields": {
        "expire_date": "2015-07-03T17:09:51.607Z",
        "session_data": "ZGEyMDI5ZDA0OWU5NTdjZjkzMmY2NDVmMzYyM2MwOTgwYjg0YzcxNTp7Il9hdXRoX3VzZXJfaGFzaCI6ImYxYTJiZTVmZTI3ZGZkYmNhOWMzZGYzOGY4YzA3MDJkYWVmMTk0NjMiLCJfYXV0aF91c2VyX2JhY2tlbmQiOiJkamFuZ28uY29udHJpYi5hdXRoLmJhY2tlbmRzLk1vZGVsQmFja2VuZCIsIl9hdXRoX3VzZXJfaWQiOiIxIn0="
    },
    "model": "sessions.session",
    "pk": "47zzlwmuzi9okt33ztopdt159v37dp0z"
},
{
    "fields": {
        "expire_date": "2015-09-24T15:27:04.866Z",
        "session_data": "ZGEyMDI5ZDA0OWU5NTdjZjkzMmY2NDVmMzYyM2MwOTgwYjg0YzcxNTp7Il9hdXRoX3VzZXJfaGFzaCI6ImYxYTJiZTVmZTI3ZGZkYmNhOWMzZGYzOGY4YzA3MDJkYWVmMTk0NjMiLCJfYXV0aF91c2VyX2JhY2tlbmQiOiJkamFuZ28uY29udHJpYi5hdXRoLmJhY2tlbmRzLk1vZGVsQmFja2VuZCIsIl9hdXRoX3VzZXJfaWQiOiIxIn0="
    },
    "model": "sessions.session",
    "pk": "4mindou46q8fbd6tzrs0zrqbg9rhyg9l"
},
{
    "fields": {
        "expire_date": "2015-09-24T15:19:28.446Z",
        "session_data": "ZGEyMDI5ZDA0OWU5NTdjZjkzMmY2NDVmMzYyM2MwOTgwYjg0YzcxNTp7Il9hdXRoX3VzZXJfaGFzaCI6ImYxYTJiZTVmZTI3ZGZkYmNhOWMzZGYzOGY4YzA3MDJkYWVmMTk0NjMiLCJfYXV0aF91c2VyX2JhY2tlbmQiOiJkamFuZ28uY29udHJpYi5hdXRoLmJhY2tlbmRzLk1vZGVsQmFja2VuZCIsIl9hdXRoX3VzZXJfaWQiOiIxIn0="
    },
    "model": "sessions.session",
    "pk": "4s13ybdqen39qj33tzr3celuysyi6spq"
},
{
    "fields": {
        "expire_date": "2015-07-03T17:17:10.393Z",
        "session_data": "ZGEyMDI5ZDA0OWU5NTdjZjkzMmY2NDVmMzYyM2MwOTgwYjg0YzcxNTp7Il9hdXRoX3VzZXJfaGFzaCI6ImYxYTJiZTVmZTI3ZGZkYmNhOWMzZGYzOGY4YzA3MDJkYWVmMTk0NjMiLCJfYXV0aF91c2VyX2JhY2tlbmQiOiJkamFuZ28uY29udHJpYi5hdXRoLmJhY2tlbmRzLk1vZGVsQmFja2VuZCIsIl9hdXRoX3VzZXJfaWQiOiIxIn0="
    },
    "model": "sessions.session",
    "pk": "5k8e3dat7cvqexqad60ixgyue1i4g9wq"
},
{
    "fields": {
        "expire_date": "2015-09-21T20:28:46.755Z",
        "session_data": "ZGEyMDI5ZDA0OWU5NTdjZjkzMmY2NDVmMzYyM2MwOTgwYjg0YzcxNTp7Il9hdXRoX3VzZXJfaGFzaCI6ImYxYTJiZTVmZTI3ZGZkYmNhOWMzZGYzOGY4YzA3MDJkYWVmMTk0NjMiLCJfYXV0aF91c2VyX2JhY2tlbmQiOiJkamFuZ28uY29udHJpYi5hdXRoLmJhY2tlbmRzLk1vZGVsQmFja2VuZCIsIl9hdXRoX3VzZXJfaWQiOiIxIn0="
    },
    "model": "sessions.session",
    "pk": "6d2aqp1mka74chlgr680tdkfeiz7xf67"
},
{
    "fields": {
        "expire_date": "2015-07-03T16:48:53.415Z",
        "session_data": "ZGEyMDI5ZDA0OWU5NTdjZjkzMmY2NDVmMzYyM2MwOTgwYjg0YzcxNTp7Il9hdXRoX3VzZXJfaGFzaCI6ImYxYTJiZTVmZTI3ZGZkYmNhOWMzZGYzOGY4YzA3MDJkYWVmMTk0NjMiLCJfYXV0aF91c2VyX2JhY2tlbmQiOiJkamFuZ28uY29udHJpYi5hdXRoLmJhY2tlbmRzLk1vZGVsQmFja2VuZCIsIl9hdXRoX3VzZXJfaWQiOiIxIn0="
    },
    "model": "sessions.session",
    "pk": "78d8tt1m4npk7bal4oez2h83qt70lc4y"
},
{
    "fields": {
        "expire_date": "2015-07-03T17:39:32.177Z",
        "session_data": "ZGEyMDI5ZDA0OWU5NTdjZjkzMmY2NDVmMzYyM2MwOTgwYjg0YzcxNTp7Il9hdXRoX3VzZXJfaGFzaCI6ImYxYTJiZTVmZTI3ZGZkYmNhOWMzZGYzOGY4YzA3MDJkYWVmMTk0NjMiLCJfYXV0aF91c2VyX2JhY2tlbmQiOiJkamFuZ28uY29udHJpYi5hdXRoLmJhY2tlbmRzLk1vZGVsQmFja2VuZCIsIl9hdXRoX3VzZXJfaWQiOiIxIn0="
    },
    "model": "sessions.session",
    "pk": "7d2ni8p87p389y7xk5z75lzlnfna06rs"
},
{
    "fields": {
        "expire_date": "2015-07-03T16:56:25.062Z",
        "session_data": "ZGEyMDI5ZDA0OWU5NTdjZjkzMmY2NDVmMzYyM2MwOTgwYjg0YzcxNTp7Il9hdXRoX3VzZXJfaGFzaCI6ImYxYTJiZTVmZTI3ZGZkYmNhOWMzZGYzOGY4YzA3MDJkYWVmMTk0NjMiLCJfYXV0aF91c2VyX2JhY2tlbmQiOiJkamFuZ28uY29udHJpYi5hdXRoLmJhY2tlbmRzLk1vZGVsQmFja2VuZCIsIl9hdXRoX3VzZXJfaWQiOiIxIn0="
    },
    "model": "sessions.session",
    "pk": "7fp6b79qz5smdhpytcanc0av1jvz0q7i"
},
{
    "fields": {
        "expire_date": "2015-09-24T15:16:19.005Z",
        "session_data": "ZGEyMDI5ZDA0OWU5NTdjZjkzMmY2NDVmMzYyM2MwOTgwYjg0YzcxNTp7Il9hdXRoX3VzZXJfaGFzaCI6ImYxYTJiZTVmZTI3ZGZkYmNhOWMzZGYzOGY4YzA3MDJkYWVmMTk0NjMiLCJfYXV0aF91c2VyX2JhY2tlbmQiOiJkamFuZ28uY29udHJpYi5hdXRoLmJhY2tlbmRzLk1vZGVsQmFja2VuZCIsIl9hdXRoX3VzZXJfaWQiOiIxIn0="
    },
    "model": "sessions.session",
    "pk": "8topmdfw163taheap12bxnztl7tojiv4"
},
{
    "fields": {
        "expire_date": "2015-07-03T17:05:35.086Z",
        "session_data": "ZGEyMDI5ZDA0OWU5NTdjZjkzMmY2NDVmMzYyM2MwOTgwYjg0YzcxNTp7Il9hdXRoX3VzZXJfaGFzaCI6ImYxYTJiZTVmZTI3ZGZkYmNhOWMzZGYzOGY4YzA3MDJkYWVmMTk0NjMiLCJfYXV0aF91c2VyX2JhY2tlbmQiOiJkamFuZ28uY29udHJpYi5hdXRoLmJhY2tlbmRzLk1vZGVsQmFja2VuZCIsIl9hdXRoX3VzZXJfaWQiOiIxIn0="
    },
    "model": "sessions.session",
    "pk": "a5es7ixk3jd6kfv34496rjainidclc67"
},
{
    "fields": {
        "expire_date": "2015-09-24T14:59:01.381Z",
        "session_data": "ZGEyMDI5ZDA0OWU5NTdjZjkzMmY2NDVmMzYyM2MwOTgwYjg0YzcxNTp7Il9hdXRoX3VzZXJfaGFzaCI6ImYxYTJiZTVmZTI3ZGZkYmNhOWMzZGYzOGY4YzA3MDJkYWVmMTk0NjMiLCJfYXV0aF91c2VyX2JhY2tlbmQiOiJkamFuZ28uY29udHJpYi5hdXRoLmJhY2tlbmRzLk1vZGVsQmFja2VuZCIsIl9hdXRoX3VzZXJfaWQiOiIxIn0="
    },
    "model": "sessions.session",
    "pk": "bakdccveqqs0js033u5w9dnh37hwy8bv"
},
{
    "fields": {
        "expire_date": "2015-09-24T15:34:46.558Z",
        "session_data": "ZGEyMDI5ZDA0OWU5NTdjZjkzMmY2NDVmMzYyM2MwOTgwYjg0YzcxNTp7Il9hdXRoX3VzZXJfaGFzaCI6ImYxYTJiZTVmZTI3ZGZkYmNhOWMzZGYzOGY4YzA3MDJkYWVmMTk0NjMiLCJfYXV0aF91c2VyX2JhY2tlbmQiOiJkamFuZ28uY29udHJpYi5hdXRoLmJhY2tlbmRzLk1vZGVsQmFja2VuZCIsIl9hdXRoX3VzZXJfaWQiOiIxIn0="
    },
    "model": "sessions.session",
    "pk": "bcri88dqhz49r7fxinadn3m3pi9cu2bi"
},
{
    "fields": {
        "expire_date": "2015-09-24T15:39:56.832Z",
        "session_data": "ZGEyMDI5ZDA0OWU5NTdjZjkzMmY2NDVmMzYyM2MwOTgwYjg0YzcxNTp7Il9hdXRoX3VzZXJfaGFzaCI6ImYxYTJiZTVmZTI3ZGZkYmNhOWMzZGYzOGY4YzA3MDJkYWVmMTk0NjMiLCJfYXV0aF91c2VyX2JhY2tlbmQiOiJkamFuZ28uY29udHJpYi5hdXRoLmJhY2tlbmRzLk1vZGVsQmFja2VuZCIsIl9hdXRoX3VzZXJfaWQiOiIxIn0="
    },
    "model": "sessions.session",
    "pk": "bvumf3yw9xcfp4h7gi2gehusk9809t9d"
},
{
    "fields": {
        "expire_date": "2015-07-13T23:31:38.042Z",
        "session_data": "ZGEyMDI5ZDA0OWU5NTdjZjkzMmY2NDVmMzYyM2MwOTgwYjg0YzcxNTp7Il9hdXRoX3VzZXJfaGFzaCI6ImYxYTJiZTVmZTI3ZGZkYmNhOWMzZGYzOGY4YzA3MDJkYWVmMTk0NjMiLCJfYXV0aF91c2VyX2JhY2tlbmQiOiJkamFuZ28uY29udHJpYi5hdXRoLmJhY2tlbmRzLk1vZGVsQmFja2VuZCIsIl9hdXRoX3VzZXJfaWQiOiIxIn0="
    },
    "model": "sessions.session",
    "pk": "ccg92cme1cak57ofz8r1dri23v96fpb7"
},
{
    "fields": {
        "expire_date": "2015-07-14T16:24:35.307Z",
        "session_data": "MzZmYWMwZDJiZjJhNzQyZjllMWYxODIzYzNiMGI2ZWZkODhhNmQyNDp7Il9hdXRoX3VzZXJfaGFzaCI6ImYxOWNjYmYwNDM3ZTlhMjE5NDU3NTljZTE5ZThjNGUxNjJiZmM2NGYiLCJfYXV0aF91c2VyX2JhY2tlbmQiOiJkamFuZ28uY29udHJpYi5hdXRoLmJhY2tlbmRzLk1vZGVsQmFja2VuZCIsIl9hdXRoX3VzZXJfaWQiOiI4In0="
    },
    "model": "sessions.session",
    "pk": "d5znq6jd1vis8a9coolbsdcz7qody9m8"
},
{
    "fields": {
        "expire_date": "2015-09-24T16:54:49.179Z",
        "session_data": "ODg3NWIyODc4ZTUxODY2ZmM4OTU2ZWYwMmMzYzBhYjU4NDA0ZDYwYTp7Il9hdXRoX3VzZXJfaGFzaCI6ImY1M2Y1OGExMjEzYTc1YzI1YjUxZjRlZmQ4ZWI3ODg4NTRlZGYzNzEiLCJfYXV0aF91c2VyX2JhY2tlbmQiOiJkamFuZ28uY29udHJpYi5hdXRoLmJhY2tlbmRzLk1vZGVsQmFja2VuZCIsIl9hdXRoX3VzZXJfaWQiOiIxIn0="
    },
    "model": "sessions.session",
    "pk": "g2w33080mqj9r93chvz4sz98bj1j22e3"
},
{
    "fields": {
        "expire_date": "2015-07-03T17:35:31.497Z",
        "session_data": "ZGEyMDI5ZDA0OWU5NTdjZjkzMmY2NDVmMzYyM2MwOTgwYjg0YzcxNTp7Il9hdXRoX3VzZXJfaGFzaCI6ImYxYTJiZTVmZTI3ZGZkYmNhOWMzZGYzOGY4YzA3MDJkYWVmMTk0NjMiLCJfYXV0aF91c2VyX2JhY2tlbmQiOiJkamFuZ28uY29udHJpYi5hdXRoLmJhY2tlbmRzLk1vZGVsQmFja2VuZCIsIl9hdXRoX3VzZXJfaWQiOiIxIn0="
    },
    "model": "sessions.session",
    "pk": "gus9fqlhwwecvxh6xaoc0bk8gnxh14ny"
},
{
    "fields": {
        "expire_date": "2015-09-24T16:17:56.693Z",
        "session_data": "ZGEyMDI5ZDA0OWU5NTdjZjkzMmY2NDVmMzYyM2MwOTgwYjg0YzcxNTp7Il9hdXRoX3VzZXJfaGFzaCI6ImYxYTJiZTVmZTI3ZGZkYmNhOWMzZGYzOGY4YzA3MDJkYWVmMTk0NjMiLCJfYXV0aF91c2VyX2JhY2tlbmQiOiJkamFuZ28uY29udHJpYi5hdXRoLmJhY2tlbmRzLk1vZGVsQmFja2VuZCIsIl9hdXRoX3VzZXJfaWQiOiIxIn0="
    },
    "model": "sessions.session",
    "pk": "gv9e8oadrf5bi2501e1mte8rxk6pcuwd"
},
{
    "fields": {
        "expire_date": "2015-07-03T14:52:25.956Z",
        "session_data": "ZGEyMDI5ZDA0OWU5NTdjZjkzMmY2NDVmMzYyM2MwOTgwYjg0YzcxNTp7Il9hdXRoX3VzZXJfaGFzaCI6ImYxYTJiZTVmZTI3ZGZkYmNhOWMzZGYzOGY4YzA3MDJkYWVmMTk0NjMiLCJfYXV0aF91c2VyX2JhY2tlbmQiOiJkamFuZ28uY29udHJpYi5hdXRoLmJhY2tlbmRzLk1vZGVsQmFja2VuZCIsIl9hdXRoX3VzZXJfaWQiOiIxIn0="
    },
    "model": "sessions.session",
    "pk": "gyzor5dlu4cxssbfa6450gjg3mzbjcrv"
},
{
    "fields": {
        "expire_date": "2015-09-24T17:00:04.960Z",
        "session_data": "ODg3NWIyODc4ZTUxODY2ZmM4OTU2ZWYwMmMzYzBhYjU4NDA0ZDYwYTp7Il9hdXRoX3VzZXJfaGFzaCI6ImY1M2Y1OGExMjEzYTc1YzI1YjUxZjRlZmQ4ZWI3ODg4NTRlZGYzNzEiLCJfYXV0aF91c2VyX2JhY2tlbmQiOiJkamFuZ28uY29udHJpYi5hdXRoLmJhY2tlbmRzLk1vZGVsQmFja2VuZCIsIl9hdXRoX3VzZXJfaWQiOiIxIn0="
    },
    "model": "sessions.session",
    "pk": "h13u8rcwtxyd6kvfamt3ik4os20qvlwb"
},
{
    "fields": {
        "expire_date": "2015-06-09T17:30:15.298Z",
        "session_data": "OWEwMzQ5MWUxMGQ4OGRlN2Q4MDFlOTI3YTExOTRmYTFlMTdhZGFjNDp7fQ=="
    },
    "model": "sessions.session",
    "pk": "mdoyupw29axqj6pxawvfb84royiinro8"
},
{
    "fields": {
        "expire_date": "2015-09-24T15:56:21.972Z",
        "session_data": "ZGEyMDI5ZDA0OWU5NTdjZjkzMmY2NDVmMzYyM2MwOTgwYjg0YzcxNTp7Il9hdXRoX3VzZXJfaGFzaCI6ImYxYTJiZTVmZTI3ZGZkYmNhOWMzZGYzOGY4YzA3MDJkYWVmMTk0NjMiLCJfYXV0aF91c2VyX2JhY2tlbmQiOiJkamFuZ28uY29udHJpYi5hdXRoLmJhY2tlbmRzLk1vZGVsQmFja2VuZCIsIl9hdXRoX3VzZXJfaWQiOiIxIn0="
    },
    "model": "sessions.session",
    "pk": "n6w639nqado2r7ral759lrvkex8t9oru"
},
{
    "fields": {
        "expire_date": "2015-09-24T16:25:21.592Z",
        "session_data": "ZGEyMDI5ZDA0OWU5NTdjZjkzMmY2NDVmMzYyM2MwOTgwYjg0YzcxNTp7Il9hdXRoX3VzZXJfaGFzaCI6ImYxYTJiZTVmZTI3ZGZkYmNhOWMzZGYzOGY4YzA3MDJkYWVmMTk0NjMiLCJfYXV0aF91c2VyX2JhY2tlbmQiOiJkamFuZ28uY29udHJpYi5hdXRoLmJhY2tlbmRzLk1vZGVsQmFja2VuZCIsIl9hdXRoX3VzZXJfaWQiOiIxIn0="
    },
    "model": "sessions.session",
    "pk": "pwre1bus782oe0hq0me6u0wl9irdlnsc"
},
{
    "fields": {
        "expire_date": "2015-07-03T16:44:27.305Z",
        "session_data": "ZGEyMDI5ZDA0OWU5NTdjZjkzMmY2NDVmMzYyM2MwOTgwYjg0YzcxNTp7Il9hdXRoX3VzZXJfaGFzaCI6ImYxYTJiZTVmZTI3ZGZkYmNhOWMzZGYzOGY4YzA3MDJkYWVmMTk0NjMiLCJfYXV0aF91c2VyX2JhY2tlbmQiOiJkamFuZ28uY29udHJpYi5hdXRoLmJhY2tlbmRzLk1vZGVsQmFja2VuZCIsIl9hdXRoX3VzZXJfaWQiOiIxIn0="
    },
    "model": "sessions.session",
    "pk": "rynxe47j4p5mcdyyyhp99k66wsc3yc5i"
},
{
    "fields": {
        "expire_date": "2015-09-24T15:51:50.105Z",
        "session_data": "YWI5NDc2ODc3ODY5ZjE0NmJmOGE4NjIxZThlMjhhMWRjYTZkNGMyZDp7Il9hdXRoX3VzZXJfaGFzaCI6ImYxYTJiZTVmZTI3ZGZkYmNhOWMzZGYzOGY4YzA3MDJkYWVmMTk0NjMiLCJfYXV0aF91c2VyX2lkIjoiMSIsIl9hdXRoX3VzZXJfYmFja2VuZCI6ImRqYW5nby5jb250cmliLmF1dGguYmFja2VuZHMuTW9kZWxCYWNrZW5kIn0="
    },
    "model": "sessions.session",
    "pk": "s4qtm60rxsvx72kwpamrasp5w6mlv2j8"
},
{
    "fields": {
        "expire_date": "2015-07-03T16:52:46.434Z",
        "session_data": "ZGEyMDI5ZDA0OWU5NTdjZjkzMmY2NDVmMzYyM2MwOTgwYjg0YzcxNTp7Il9hdXRoX3VzZXJfaGFzaCI6ImYxYTJiZTVmZTI3ZGZkYmNhOWMzZGYzOGY4YzA3MDJkYWVmMTk0NjMiLCJfYXV0aF91c2VyX2JhY2tlbmQiOiJkamFuZ28uY29udHJpYi5hdXRoLmJhY2tlbmRzLk1vZGVsQmFja2VuZCIsIl9hdXRoX3VzZXJfaWQiOiIxIn0="
    },
    "model": "sessions.session",
    "pk": "sb9c9pz8qqnq91kjg1ancy85l9kfd9z1"
},
{
    "fields": {
        "expire_date": "2015-09-24T16:05:11.170Z",
        "session_data": "ZGEyMDI5ZDA0OWU5NTdjZjkzMmY2NDVmMzYyM2MwOTgwYjg0YzcxNTp7Il9hdXRoX3VzZXJfaGFzaCI6ImYxYTJiZTVmZTI3ZGZkYmNhOWMzZGYzOGY4YzA3MDJkYWVmMTk0NjMiLCJfYXV0aF91c2VyX2JhY2tlbmQiOiJkamFuZ28uY29udHJpYi5hdXRoLmJhY2tlbmRzLk1vZGVsQmFja2VuZCIsIl9hdXRoX3VzZXJfaWQiOiIxIn0="
    },
    "model": "sessions.session",
    "pk": "sr73purcnz4eg3mst7v7hcb87wspattu"
},
{
    "fields": {
        "expire_date": "2015-09-24T16:44:20.123Z",
        "session_data": "ODg3NWIyODc4ZTUxODY2ZmM4OTU2ZWYwMmMzYzBhYjU4NDA0ZDYwYTp7Il9hdXRoX3VzZXJfaGFzaCI6ImY1M2Y1OGExMjEzYTc1YzI1YjUxZjRlZmQ4ZWI3ODg4NTRlZGYzNzEiLCJfYXV0aF91c2VyX2JhY2tlbmQiOiJkamFuZ28uY29udHJpYi5hdXRoLmJhY2tlbmRzLk1vZGVsQmFja2VuZCIsIl9hdXRoX3VzZXJfaWQiOiIxIn0="
    },
    "model": "sessions.session",
    "pk": "ue26it12lqgh8h5lyb6gqc07yb9gxsnc"
},
{
    "fields": {
        "expire_date": "2015-07-03T17:32:01.858Z",
        "session_data": "ZGEyMDI5ZDA0OWU5NTdjZjkzMmY2NDVmMzYyM2MwOTgwYjg0YzcxNTp7Il9hdXRoX3VzZXJfaGFzaCI6ImYxYTJiZTVmZTI3ZGZkYmNhOWMzZGYzOGY4YzA3MDJkYWVmMTk0NjMiLCJfYXV0aF91c2VyX2JhY2tlbmQiOiJkamFuZ28uY29udHJpYi5hdXRoLmJhY2tlbmRzLk1vZGVsQmFja2VuZCIsIl9hdXRoX3VzZXJfaWQiOiIxIn0="
    },
    "model": "sessions.session",
    "pk": "uibipat0xjr3wji1gcl0i4ac3bwzgnum"
},
{
    "fields": {
        "expire_date": "2015-09-24T15:30:33.948Z",
        "session_data": "ZGEyMDI5ZDA0OWU5NTdjZjkzMmY2NDVmMzYyM2MwOTgwYjg0YzcxNTp7Il9hdXRoX3VzZXJfaGFzaCI6ImYxYTJiZTVmZTI3ZGZkYmNhOWMzZGYzOGY4YzA3MDJkYWVmMTk0NjMiLCJfYXV0aF91c2VyX2JhY2tlbmQiOiJkamFuZ28uY29udHJpYi5hdXRoLmJhY2tlbmRzLk1vZGVsQmFja2VuZCIsIl9hdXRoX3VzZXJfaWQiOiIxIn0="
    },
    "model": "sessions.session",
    "pk": "uisrg19b4j88wid32tjtqbuov40t3zbb"
},
{
    "fields": {
        "expire_date": "2015-07-03T17:27:58.772Z",
        "session_data": "ZGEyMDI5ZDA0OWU5NTdjZjkzMmY2NDVmMzYyM2MwOTgwYjg0YzcxNTp7Il9hdXRoX3VzZXJfaGFzaCI6ImYxYTJiZTVmZTI3ZGZkYmNhOWMzZGYzOGY4YzA3MDJkYWVmMTk0NjMiLCJfYXV0aF91c2VyX2JhY2tlbmQiOiJkamFuZ28uY29udHJpYi5hdXRoLmJhY2tlbmRzLk1vZGVsQmFja2VuZCIsIl9hdXRoX3VzZXJfaWQiOiIxIn0="
    },
    "model": "sessions.session",
    "pk": "wbn6z0da49vm0j9nw73jkea0z0u7j7a7"
},
{
    "fields": {
        "expire_date": "2015-07-03T14:51:57.489Z",
        "session_data": "OWEwMzQ5MWUxMGQ4OGRlN2Q4MDFlOTI3YTExOTRmYTFlMTdhZGFjNDp7fQ=="
    },
    "model": "sessions.session",
    "pk": "xesxx45n30xkya99x9hyr90dxsl5rkwo"
},
{
    "fields": {
        "expire_date": "2015-09-24T16:01:24.384Z",
        "session_data": "ZGEyMDI5ZDA0OWU5NTdjZjkzMmY2NDVmMzYyM2MwOTgwYjg0YzcxNTp7Il9hdXRoX3VzZXJfaGFzaCI6ImYxYTJiZTVmZTI3ZGZkYmNhOWMzZGYzOGY4YzA3MDJkYWVmMTk0NjMiLCJfYXV0aF91c2VyX2JhY2tlbmQiOiJkamFuZ28uY29udHJpYi5hdXRoLmJhY2tlbmRzLk1vZGVsQmFja2VuZCIsIl9hdXRoX3VzZXJfaWQiOiIxIn0="
    },
    "model": "sessions.session",
    "pk": "xt6cb2fgfjwrcb44731don5iifiko8tp"
},
{
    "fields": {
        "expire_date": "2015-09-24T15:23:17.332Z",
        "session_data": "ZGEyMDI5ZDA0OWU5NTdjZjkzMmY2NDVmMzYyM2MwOTgwYjg0YzcxNTp7Il9hdXRoX3VzZXJfaGFzaCI6ImYxYTJiZTVmZTI3ZGZkYmNhOWMzZGYzOGY4YzA3MDJkYWVmMTk0NjMiLCJfYXV0aF91c2VyX2JhY2tlbmQiOiJkamFuZ28uY29udHJpYi5hdXRoLmJhY2tlbmRzLk1vZGVsQmFja2VuZCIsIl9hdXRoX3VzZXJfaWQiOiIxIn0="
    },
    "model": "sessions.session",
    "pk": "xzyu2q5xbysbuzkmdsd9qou64h4romcb"
},
{
    "fields": {
        "expire_date": "2015-09-24T16:12:29.975Z",
        "session_data": "ZGEyMDI5ZDA0OWU5NTdjZjkzMmY2NDVmMzYyM2MwOTgwYjg0YzcxNTp7Il9hdXRoX3VzZXJfaGFzaCI6ImYxYTJiZTVmZTI3ZGZkYmNhOWMzZGYzOGY4YzA3MDJkYWVmMTk0NjMiLCJfYXV0aF91c2VyX2JhY2tlbmQiOiJkamFuZ28uY29udHJpYi5hdXRoLmJhY2tlbmRzLk1vZGVsQmFja2VuZCIsIl9hdXRoX3VzZXJfaWQiOiIxIn0="
    },
    "model": "sessions.session",
    "pk": "z4i8wj2i7w9nuaxhfyqw60e6fjlzfnyx"
},
{
    "fields": {
        "codename": "add_logentry",
        "name": "Can add log entry",
        "content_type": 1
    },
    "model": "auth.permission",
    "pk": 1
},
{
    "fields": {
        "codename": "change_logentry",
        "name": "Can change log entry",
        "content_type": 1
    },
    "model": "auth.permission",
    "pk": 2
},
{
    "fields": {
        "codename": "delete_logentry",
        "name": "Can delete log entry",
        "content_type": 1
    },
    "model": "auth.permission",
    "pk": 3
},
{
    "fields": {
        "codename": "add_permission",
        "name": "Can add permission",
        "content_type": 2
    },
    "model": "auth.permission",
    "pk": 4
},
{
    "fields": {
        "codename": "change_permission",
        "name": "Can change permission",
        "content_type": 2
    },
    "model": "auth.permission",
    "pk": 5
},
{
    "fields": {
        "codename": "delete_permission",
        "name": "Can delete permission",
        "content_type": 2
    },
    "model": "auth.permission",
    "pk": 6
},
{
    "fields": {
        "codename": "add_group",
        "name": "Can add group",
        "content_type": 3
    },
    "model": "auth.permission",
    "pk": 7
},
{
    "fields": {
        "codename": "change_group",
        "name": "Can change group",
        "content_type": 3
    },
    "model": "auth.permission",
    "pk": 8
},
{
    "fields": {
        "codename": "delete_group",
        "name": "Can delete group",
        "content_type": 3
    },
    "model": "auth.permission",
    "pk": 9
},
{
    "fields": {
        "codename": "add_user",
        "name": "Can add user",
        "content_type": 4
    },
    "model": "auth.permission",
    "pk": 10
},
{
    "fields": {
        "codename": "change_user",
        "name": "Can change user",
        "content_type": 4
    },
    "model": "auth.permission",
    "pk": 11
},
{
    "fields": {
        "codename": "delete_user",
        "name": "Can delete user",
        "content_type": 4
    },
    "model": "auth.permission",
    "pk": 12
},
{
    "fields": {
        "codename": "add_contenttype",
        "name": "Can add content type",
        "content_type": 5
    },
    "model": "auth.permission",
    "pk": 13
},
{
    "fields": {
        "codename": "change_contenttype",
        "name": "Can change content type",
        "content_type": 5
    },
    "model": "auth.permission",
    "pk": 14
},
{
    "fields": {
        "codename": "delete_contenttype",
        "name": "Can delete content type",
        "content_type": 5
    },
    "model": "auth.permission",
    "pk": 15
},
{
    "fields": {
        "codename": "add_session",
        "name": "Can add session",
        "content_type": 6
    },
    "model": "auth.permission",
    "pk": 16
},
{
    "fields": {
        "codename": "change_session",
        "name": "Can change session",
        "content_type": 6
    },
    "model": "auth.permission",
    "pk": 17
},
{
    "fields": {
        "codename": "delete_session",
        "name": "Can delete session",
        "content_type": 6
    },
    "model": "auth.permission",
    "pk": 18
},
{
    "fields": {
        "codename": "add_zona",
        "name": "Can add zona",
        "content_type": 7
    },
    "model": "auth.permission",
    "pk": 19
},
{
    "fields": {
        "codename": "change_zona",
        "name": "Can change zona",
        "content_type": 7
    },
    "model": "auth.permission",
    "pk": 20
},
{
    "fields": {
        "codename": "delete_zona",
        "name": "Can delete zona",
        "content_type": 7
    },
    "model": "auth.permission",
    "pk": 21
},
{
    "fields": {
        "codename": "add_municipio",
        "name": "Can add municipio",
        "content_type": 8
    },
    "model": "auth.permission",
    "pk": 22
},
{
    "fields": {
        "codename": "change_municipio",
        "name": "Can change municipio",
        "content_type": 8
    },
    "model": "auth.permission",
    "pk": 23
},
{
    "fields": {
        "codename": "delete_municipio",
        "name": "Can delete municipio",
        "content_type": 8
    },
    "model": "auth.permission",
    "pk": 24
},
{
    "fields": {
        "codename": "add_parroquia",
        "name": "Can add parroquia",
        "content_type": 9
    },
    "model": "auth.permission",
    "pk": 25
},
{
    "fields": {
        "codename": "change_parroquia",
        "name": "Can change parroquia",
        "content_type": 9
    },
    "model": "auth.permission",
    "pk": 26
},
{
    "fields": {
        "codename": "delete_parroquia",
        "name": "Can delete parroquia",
        "content_type": 9
    },
    "model": "auth.permission",
    "pk": 27
},
{
    "fields": {
        "codename": "add_procedimiento",
        "name": "Can add procedimiento",
        "content_type": 10
    },
    "model": "auth.permission",
    "pk": 28
},
{
    "fields": {
        "codename": "change_procedimiento",
        "name": "Can change procedimiento",
        "content_type": 10
    },
    "model": "auth.permission",
    "pk": 29
},
{
    "fields": {
        "codename": "delete_procedimiento",
        "name": "Can delete procedimiento",
        "content_type": 10
    },
    "model": "auth.permission",
    "pk": 30
},
{
    "fields": {
        "codename": "add_detalleprocedimiento",
        "name": "Can add detalle procedimiento",
        "content_type": 11
    },
    "model": "auth.permission",
    "pk": 31
},
{
    "fields": {
        "codename": "change_detalleprocedimiento",
        "name": "Can change detalle procedimiento",
        "content_type": 11
    },
    "model": "auth.permission",
    "pk": 32
},
{
    "fields": {
        "codename": "delete_detalleprocedimiento",
        "name": "Can delete detalle procedimiento",
        "content_type": 11
    },
    "model": "auth.permission",
    "pk": 33
},
{
    "fields": {
        "codename": "add_comision",
        "name": "Can add comision",
        "content_type": 12
    },
    "model": "auth.permission",
    "pk": 34
},
{
    "fields": {
        "codename": "change_comision",
        "name": "Can change comision",
        "content_type": 12
    },
    "model": "auth.permission",
    "pk": 35
},
{
    "fields": {
        "codename": "delete_comision",
        "name": "Can delete comision",
        "content_type": 12
    },
    "model": "auth.permission",
    "pk": 36
},
{
    "fields": {
        "codename": "add_estacion",
        "name": "Can add estacion",
        "content_type": 13
    },
    "model": "auth.permission",
    "pk": 37
},
{
    "fields": {
        "codename": "change_estacion",
        "name": "Can change estacion",
        "content_type": 13
    },
    "model": "auth.permission",
    "pk": 38
},
{
    "fields": {
        "codename": "delete_estacion",
        "name": "Can delete estacion",
        "content_type": 13
    },
    "model": "auth.permission",
    "pk": 39
},
{
    "fields": {
        "codename": "add_unidad",
        "name": "Can add unidad",
        "content_type": 14
    },
    "model": "auth.permission",
    "pk": 40
},
{
    "fields": {
        "codename": "change_unidad",
        "name": "Can change unidad",
        "content_type": 14
    },
    "model": "auth.permission",
    "pk": 41
},
{
    "fields": {
        "codename": "delete_unidad",
        "name": "Can delete unidad",
        "content_type": 14
    },
    "model": "auth.permission",
    "pk": 42
},
{
    "fields": {
        "codename": "add_diagnostico",
        "name": "Can add diagnostico",
        "content_type": 15
    },
    "model": "auth.permission",
    "pk": 43
},
{
    "fields": {
        "codename": "change_diagnostico",
        "name": "Can change diagnostico",
        "content_type": 15
    },
    "model": "auth.permission",
    "pk": 44
},
{
    "fields": {
        "codename": "delete_diagnostico",
        "name": "Can delete diagnostico",
        "content_type": 15
    },
    "model": "auth.permission",
    "pk": 45
},
{
    "fields": {
        "codename": "add_userprofile",
        "name": "Can add user profile",
        "content_type": 16
    },
    "model": "auth.permission",
    "pk": 46
},
{
    "fields": {
        "codename": "change_userprofile",
        "name": "Can change user profile",
        "content_type": 16
    },
    "model": "auth.permission",
    "pk": 47
},
{
    "fields": {
        "codename": "delete_userprofile",
        "name": "Can delete user profile",
        "content_type": 16
    },
    "model": "auth.permission",
    "pk": 48
},
{
    "fields": {
        "codename": "add_novedad",
        "name": "Can add novedad",
        "content_type": 17
    },
    "model": "auth.permission",
    "pk": 49
},
{
    "fields": {
        "codename": "change_novedad",
        "name": "Can change novedad",
        "content_type": 17
    },
    "model": "auth.permission",
    "pk": 50
},
{
    "fields": {
        "codename": "delete_novedad",
        "name": "Can delete novedad",
        "content_type": 17
    },
    "model": "auth.permission",
    "pk": 51
},
{
    "fields": {
        "codename": "add_vehiculo",
        "name": "Can add vehiculo",
        "content_type": 18
    },
    "model": "auth.permission",
    "pk": 52
},
{
    "fields": {
        "codename": "change_vehiculo",
        "name": "Can change vehiculo",
        "content_type": 18
    },
    "model": "auth.permission",
    "pk": 53
},
{
    "fields": {
        "codename": "delete_vehiculo",
        "name": "Can delete vehiculo",
        "content_type": 18
    },
    "model": "auth.permission",
    "pk": 54
},
{
    "fields": {
        "codename": "add_persona",
        "name": "Can add persona",
        "content_type": 19
    },
    "model": "auth.permission",
    "pk": 55
},
{
    "fields": {
        "codename": "change_persona",
        "name": "Can change persona",
        "content_type": 19
    },
    "model": "auth.permission",
    "pk": 56
},
{
    "fields": {
        "codename": "delete_persona",
        "name": "Can delete persona",
        "content_type": 19
    },
    "model": "auth.permission",
    "pk": 57
},
{
    "fields": {
        "codename": "add_estructura",
        "name": "Can add estructura",
        "content_type": 20
    },
    "model": "auth.permission",
    "pk": 58
},
{
    "fields": {
        "codename": "change_estructura",
        "name": "Can change estructura",
        "content_type": 20
    },
    "model": "auth.permission",
    "pk": 59
},
{
    "fields": {
        "codename": "delete_estructura",
        "name": "Can delete estructura",
        "content_type": 20
    },
    "model": "auth.permission",
    "pk": 60
},
{
    "fields": {
        "codename": "add_novedadunidad",
        "name": "Can add novedad unidad",
        "content_type": 21
    },
    "model": "auth.permission",
    "pk": 61
},
{
    "fields": {
        "codename": "change_novedadunidad",
        "name": "Can change novedad unidad",
        "content_type": 21
    },
    "model": "auth.permission",
    "pk": 62
},
{
    "fields": {
        "codename": "delete_novedadunidad",
        "name": "Can delete novedad unidad",
        "content_type": 21
    },
    "model": "auth.permission",
    "pk": 63
},
{
    "fields": {
        "codename": "add_novedadcomision",
        "name": "Can add novedad comision",
        "content_type": 22
    },
    "model": "auth.permission",
    "pk": 64
},
{
    "fields": {
        "codename": "change_novedadcomision",
        "name": "Can change novedad comision",
        "content_type": 22
    },
    "model": "auth.permission",
    "pk": 65
},
{
    "fields": {
        "codename": "delete_novedadcomision",
        "name": "Can delete novedad comision",
        "content_type": 22
    },
    "model": "auth.permission",
    "pk": 66
},
{
    "fields": {
        "codename": "add_novedadpersona",
        "name": "Can add novedad persona",
        "content_type": 23
    },
    "model": "auth.permission",
    "pk": 67
},
{
    "fields": {
        "codename": "change_novedadpersona",
        "name": "Can change novedad persona",
        "content_type": 23
    },
    "model": "auth.permission",
    "pk": 68
},
{
    "fields": {
        "codename": "delete_novedadpersona",
        "name": "Can delete novedad persona",
        "content_type": 23
    },
    "model": "auth.permission",
    "pk": 69
},
{
    "fields": {
        "codename": "add_novedadvehiculo",
        "name": "Can add novedad vehiculo",
        "content_type": 24
    },
    "model": "auth.permission",
    "pk": 70
},
{
    "fields": {
        "codename": "change_novedadvehiculo",
        "name": "Can change novedad vehiculo",
        "content_type": 24
    },
    "model": "auth.permission",
    "pk": 71
},
{
    "fields": {
        "codename": "delete_novedadvehiculo",
        "name": "Can delete novedad vehiculo",
        "content_type": 24
    },
    "model": "auth.permission",
    "pk": 72
},
{
    "fields": {
        "codename": "add_personavehiculo",
        "name": "Can add persona vehiculo",
        "content_type": 25
    },
    "model": "auth.permission",
    "pk": 73
},
{
    "fields": {
        "codename": "change_personavehiculo",
        "name": "Can change persona vehiculo",
        "content_type": 25
    },
    "model": "auth.permission",
    "pk": 74
},
{
    "fields": {
        "codename": "delete_personavehiculo",
        "name": "Can delete persona vehiculo",
        "content_type": 25
    },
    "model": "auth.permission",
    "pk": 75
},
{
    "fields": {
        "codename": "add_personaestructura",
        "name": "Can add persona estructura",
        "content_type": 26
    },
    "model": "auth.permission",
    "pk": 76
},
{
    "fields": {
        "codename": "change_personaestructura",
        "name": "Can change persona estructura",
        "content_type": 26
    },
    "model": "auth.permission",
    "pk": 77
},
{
    "fields": {
        "codename": "delete_personaestructura",
        "name": "Can delete persona estructura",
        "content_type": 26
    },
    "model": "auth.permission",
    "pk": 78
},
{
    "fields": {
        "codename": "add_personadiagnostico",
        "name": "Can add persona diagnostico",
        "content_type": 27
    },
    "model": "auth.permission",
    "pk": 79
},
{
    "fields": {
        "codename": "change_personadiagnostico",
        "name": "Can change persona diagnostico",
        "content_type": 27
    },
    "model": "auth.permission",
    "pk": 80
},
{
    "fields": {
        "codename": "delete_personadiagnostico",
        "name": "Can delete persona diagnostico",
        "content_type": 27
    },
    "model": "auth.permission",
    "pk": 81
},
{
    "fields": {
        "username": "admin",
        "first_name": "Roldan Dar\u00edo",
        "last_name": "Vargas G\u00f3mez",
        "is_active": true,
        "is_superuser": true,
        "is_staff": true,
        "last_login": "2015-09-24T16:55:04.826Z",
        "groups": [],
        "user_permissions": [],
        "password": "pbkdf2_sha256$20000$OXahbemr0KSw$xAMOFjjR+uELNpdF3dBezRCZEQDb6GoiDSPE3chYjjw=",
        "email": "admin@admin.com",
        "date_joined": "2015-06-29T22:35:27Z"
    },
    "model": "auth.user",
    "pk": 1
},
{
    "fields": {
        "username": "rvargas",
        "first_name": "Roldan Dar\u00edo",
        "last_name": "Vargas G\u00f3mez",
        "is_active": true,
        "is_superuser": false,
        "is_staff": false,
        "last_login": "2015-06-30T16:24:35.164Z",
        "groups": [],
        "user_permissions": [],
        "password": "pbkdf2_sha256$20000$yJBXYW8O29Tb$6zwcC3+lTBzr5kO0uGeLedcoh57AmNG6bGW+p2PAmeM=",
        "email": "roldandvg@gmail.com",
        "date_joined": "2015-06-30T16:22:39.188Z"
    },
    "model": "auth.user",
    "pk": 8
},
{
    "fields": {
        "username": "swswsw",
        "first_name": "sw",
        "last_name": "sw",
        "is_active": true,
        "is_superuser": false,
        "is_staff": false,
        "last_login": null,
        "groups": [],
        "user_permissions": [],
        "password": "pbkdf2_sha256$20000$Z463MKJVSMyF$84qvA/jmkj6l1bjpog/uMwI4PpoIdokCrJNrFyQDaxk=",
        "email": "swsws@swsw.com",
        "date_joined": "2015-06-30T16:26:27.167Z"
    },
    "model": "auth.user",
    "pk": 9
},
{
    "fields": {
        "username": "swsw",
        "first_name": "swsws",
        "last_name": "swsws",
        "is_active": true,
        "is_superuser": false,
        "is_staff": false,
        "last_login": null,
        "groups": [],
        "user_permissions": [],
        "password": "pbkdf2_sha256$20000$9EyYFurXWR1t$wGPw1msNoaI5tcgU25IGq69DqxuEc3ef83Hq/kdwZ+s=",
        "email": "swswsw@swsws.com",
        "date_joined": "2015-06-30T16:34:28.895Z"
    },
    "model": "auth.user",
    "pk": 10
},
{
    "fields": {
        "username": "hyhyhy",
        "first_name": "frfrf",
        "last_name": "rfrfrfr",
        "is_active": true,
        "is_superuser": false,
        "is_staff": false,
        "last_login": null,
        "groups": [],
        "user_permissions": [],
        "password": "pbkdf2_sha256$20000$XsIT8MK64nFH$oQ2T+ifepdUA0GmEYoAfouZq1nhPN/tKtdD0k//juug=",
        "email": "frfrfr@frfrfr.com",
        "date_joined": "2015-06-30T16:35:50.532Z"
    },
    "model": "auth.user",
    "pk": 11
},
{
    "fields": {
        "username": "dedede",
        "first_name": "sswsws",
        "last_name": "swsw",
        "is_active": true,
        "is_superuser": false,
        "is_staff": false,
        "last_login": null,
        "groups": [],
        "user_permissions": [],
        "password": "pbkdf2_sha256$20000$4INGhmwspUQz$JFolv6fssU3g/DnPOUVaVQ1Uloz1K3/jJqSC6CKr6tw=",
        "email": "swsw@deded.dede",
        "date_joined": "2015-07-03T17:32:50.060Z"
    },
    "model": "auth.user",
    "pk": 12
},
{
    "fields": {
        "action_flag": 2,
        "action_time": "2015-06-30T15:25:16.705Z",
        "object_repr": "rvargas",
        "object_id": "2",
        "change_message": "Changed password.",
        "user": 1,
        "content_type": 4
    },
    "model": "admin.logentry",
    "pk": 1
},
{
    "fields": {
        "action_flag": 3,
        "action_time": "2015-06-30T16:21:58.067Z",
        "object_repr": "aqaqa",
        "object_id": "5",
        "change_message": "",
        "user": 1,
        "content_type": 4
    },
    "model": "admin.logentry",
    "pk": 2
},
{
    "fields": {
        "action_flag": 3,
        "action_time": "2015-06-30T16:21:58.246Z",
        "object_repr": "asd",
        "object_id": "3",
        "change_message": "",
        "user": 1,
        "content_type": 4
    },
    "model": "admin.logentry",
    "pk": 3
},
{
    "fields": {
        "action_flag": 3,
        "action_time": "2015-06-30T16:21:58.379Z",
        "object_repr": "cdcdcd",
        "object_id": "6",
        "change_message": "",
        "user": 1,
        "content_type": 4
    },
    "model": "admin.logentry",
    "pk": 4
},
{
    "fields": {
        "action_flag": 3,
        "action_time": "2015-06-30T16:21:58.514Z",
        "object_repr": "dedede",
        "object_id": "7",
        "change_message": "",
        "user": 1,
        "content_type": 4
    },
    "model": "admin.logentry",
    "pk": 5
},
{
    "fields": {
        "action_flag": 3,
        "action_time": "2015-06-30T16:21:58.647Z",
        "object_repr": "rvargas",
        "object_id": "2",
        "change_message": "",
        "user": 1,
        "content_type": 4
    },
    "model": "admin.logentry",
    "pk": 6
},
{
    "fields": {
        "action_flag": 3,
        "action_time": "2015-06-30T16:21:58.798Z",
        "object_repr": "swsws",
        "object_id": "4",
        "change_message": "",
        "user": 1,
        "content_type": 4
    },
    "model": "admin.logentry",
    "pk": 7
},
{
    "fields": {
        "action_flag": 2,
        "action_time": "2015-09-24T15:28:31.308Z",
        "object_repr": "admin",
        "object_id": "1",
        "change_message": "Changed first_name and last_name.",
        "user": 1,
        "content_type": 4
    },
    "model": "admin.logentry",
    "pk": 8
}
]
